{
	"info": {
		"_postman_id": "aa65e675-c40b-4699-a2b2-cdfee9fcccf7",
		"name": "Travel buddies copy",
		"schema": "https://schema.getpostman.com/json/collection/v2.1.0/collection.json"
	},
	"item": [
		{
			"name": "Event",
			"item": [
				{
					"name": "localhost:3000/api/events/",
					"request": {
						"method": "GET",
						"header": [],
						"url": {
							"raw": "localhost:3000/api/events/",
							"host": [
								"localhost"
							],
							"port": "8080",
							"path": [
								"api",
								"events",
								""
							]
						}
					},
					"response": []
				},
				{
					"name": "localhost:3000/api/events/my",
					"request": {
						"method": "GET",
						"header": [],
						"url": {
							"raw": "localhost:3000/api/events/my",
							"host": [
								"localhost"
							],
							"port": "8080",
							"path": [
								"api",
								"events",
								"my"
							]
						}
					},
					"response": []
				},
				{
					"name": "localhost:3000/api/events/upcoming",
					"request": {
						"method": "GET",
						"header": [],
						"url": {
							"raw": "localhost:3000/api/events/my",
							"host": [
								"localhost"
							],
							"port": "8080",
							"path": [
								"api",
								"events",
								"my"
							]
						}
					},
					"response": []
				},
				{
					"name": "localhost:3000/api/events/{id}",
					"request": {
						"method": "GET",
						"header": [],
						"url": {
							"raw": "localhost:3000/api/events/248",
							"host": [
								"localhost"
							],
							"port": "8080",
							"path": [
								"api",
								"events",
								"248"
							]
						}
					},
					"response": []
				},
				{
					"name": "search  localhost:3000/api/events/search",
					"request": {
						"method": "POST",
						"header": [
							{
								"key": "Content-Type",
								"name": "Content-Type",
								"type": "text",
								"value": "application/json"
							}
						],
						"body": {
							"mode": "raw",
							"raw": "\r\n{\r\n\t\"destination\":\t{\r\n\t    \"geonameId\": 3067696,\r\n\t    \"city\": \"Prague\",\r\n\t    \"subcountry\": \"Praha\",\r\n\t    \"country\": {\r\n\t        \"name\": \"Czech Republic\"\r\n\t    }\r\n\t},\r\n\t\"year\":2020,\r\n\t\"month\":4,\r\n\t\"day\":9,\r\n\t\"rangeInDays\":1\r\n}",
							"options": {
								"raw": {
									"language": "json"
								}
							}
						},
						"url": {
							"raw": "localhost:3000/api/events/search",
							"host": [
								"localhost"
							],
							"port": "8080",
							"path": [
								"api",
								"events",
								"search"
							]
						}
					},
					"response": []
				},
				{
					"name": "create  localhost:3000/api/events/",
					"request": {
						"method": "POST",
						"header": [
							{
								"key": "Content-Type",
								"name": "Content-Type",
								"value": "application/json",
								"type": "text"
							}
						],
						"body": {
							"mode": "raw",
							"raw": "{\r\n    \"description\": \"Lukášův výlet do hajzlu\",\r\n    \"fromDate\": \"2020-06-07T11:48:47.527+0000\",\r\n    \"toDate\": \"2020-06-15T11:48:47.527+0000\",\r\n    \"destination\": {\r\n        \"geonameId\": 3067696,\r\n        \"city\": \"Prague\",\r\n        \"subcountry\": \"Praha\",\r\n        \"country\": {\r\n            \"name\": \"Czech Republic\"\r\n        }\r\n    },\r\n    \"participants\": [],\r\n    \"deleted\": false\r\n}",
							"options": {
								"raw": {
									"language": "json"
								}
							}
						},
						"url": {
							"raw": "localhost:3000/api/events/",
							"host": [
								"localhost"
							],
							"port": "8080",
							"path": [
								"api",
								"events",
								""
							]
						}
					},
					"response": []
				},
				{
					"name": "update localhost:3000/api/events/",
					"request": {
						"method": "PUT",
						"header": [
							{
								"key": "Content-Type",
								"name": "Content-Type",
								"type": "text",
								"value": "application/json"
							}
						],
						"body": {
							"mode": "raw",
							"raw": "{\r\n        \"id\": 245,\r\n        \"description\": \"Test description\",\r\n        \"fromDate\": \"2020-04-07T11:48:47.527+0000\",\r\n        \"toDate\": \"2020-04-07T11:48:47.527+0000\",\r\n        \"destination\": {\r\n\t        \"geonameId\": 3067696,\r\n\t        \"city\": \"Prague\",\r\n\t        \"subcountry\": \"Praha\",\r\n\t        \"country\": {\r\n\t            \"name\": \"Czech Republic\"\r\n\t        }\r\n\t    },\r\n        \"author\": {\r\n            \"nickname\": \"stepafil\",\r\n            \"name\": \"Filip Štěpánek\",\r\n            \"picture\": \"https://platform-lookaside.fbsbx.com/platform/profilepic/?asid=2620976478136254&height=50&width=50&ext=1588799757&hash=AeQRFHYQUTO-DAWO\",\r\n            \"email\": \"stepafil@gmail.com\",\r\n            \"friends\": [],\r\n            \"visitedCountries\": [],\r\n            \"sub\": \"facebook|2620976478136254\",\r\n            \"given_name\": \"Filip\",\r\n            \"family_name\": \"Štěpánek\",\r\n            \"updated_at\": \"2020-04-06T21:15:57.709Z\",\r\n            \"email_verified\": true\r\n        },\r\n        \"participants\": [],\r\n        \"deleted\": false\r\n    }",
							"options": {
								"raw": {
									"language": "json"
								}
							}
						},
						"url": {
							"raw": "localhost:3000/api/events/",
							"host": [
								"localhost"
							],
							"port": "8080",
							"path": [
								"api",
								"events",
								""
							]
						}
					},
					"response": []
				},
				{
					"name": "Delete localhost:3000/api/events/{id}",
					"request": {
						"method": "DELETE",
						"header": [],
						"url": {
							"raw": "localhost:3000/api/events/248",
							"host": [
								"localhost"
							],
							"port": "8080",
							"path": [
								"api",
								"events",
								"248"
							]
						}
					},
					"response": []
				},
				{
					"name": "Attend event",
					"request": {
						"method": "GET",
						"header": [],
						"url": {
							"raw": "localhost:3000/api/events/attend/{eventId}",
							"host": [
								"localhost"
							],
							"port": "8080",
							"path": [
								"api",
								"events",
								"attend",
								"{eventId}"
							]
						}
					},
					"response": []
				}
			],
			"protocolProfileBehavior": {}
		},
		{
			"name": "Destinations",
			"item": [
				{
					"name": "suggestCities",
					"request": {
						"method": "GET",
						"header": [],
						"url": {
							"raw": "localhost:3000/api/destinations/suggest/cities/{key}",
							"host": [
								"localhost"
							],
							"port": "8080",
							"path": [
								"api",
								"destinations",
								"suggest",
								"cities",
								"{key}"
							]
						}
					},
					"response": []
				},
				{
					"name": "suggestSubCountries",
					"request": {
						"method": "GET",
						"header": [],
						"url": {
							"raw": "localhost:3000/api/destinations/suggest/sub-countries/{key}",
							"host": [
								"localhost"
							],
							"port": "8080",
							"path": [
								"api",
								"destinations",
								"suggest",
								"sub-countries",
								"{key}"
							]
						}
					},
					"response": []
				},
				{
					"name": "suggestDestinations",
					"request": {
						"method": "GET",
						"header": [],
						"url": {
							"raw": "localhost:3000/api/destinations/suggest/destinations/Praha",
							"host": [
								"localhost"
							],
							"port": "8080",
							"path": [
								"api",
								"destinations",
								"suggest",
								"destinations",
								"Praha"
							]
						}
					},
					"response": []
				}
			],
			"protocolProfileBehavior": {}
		},
		{
			"name": "Message",
			"item": [
				{
					"name": "New conversation",
					"request": {
						"method": "POST",
						"header": [],
						"url": {
							"raw": "localhost:3000/api/conversations",
							"host": [
								"localhost"
							],
							"port": "8080",
							"path": [
								"api",
								"conversations"
							]
						}
					},
					"response": []
				},
				{
					"name": "Conversation messages",
					"request": {
						"method": "GET",
						"header": [],
						"url": {
							"raw": "localhost:3000/api/conversations/{conversationId}",
							"host": [
								"localhost"
							],
							"port": "8080",
							"path": [
								"api",
								"conversations",
								"{conversationId}"
							]
						}
					},
					"response": []
				},
				{
					"name": "User conversations",
					"request": {
						"method": "GET",
						"header": [],
						"url": {
							"raw": "localhost:3000/api/conversations",
							"host": [
								"localhost"
							],
							"port": "8080",
							"path": [
								"api",
								"conversations"
							]
						}
					},
					"response": []
				},
				{
					"name": "Send message",
					"request": {
						"method": "PUT",
						"header": [],
						"body": {
							"mode": "raw",
							"raw": "Message content..."
						},
						"url": {
							"raw": "localhost:3000/api/conversations/{cinversationId}",
							"host": [
								"localhost"
							],
							"port": "8080",
							"path": [
								"api",
								"conversations",
								"{cinversationId}"
							]
						}
					},
					"response": []
				}
			],
			"protocolProfileBehavior": {}
		},
		{
			"name": "User",
			"item": [
				{
					"name": "Current user",
					"request": {
						"method": "GET",
						"header": [],
						"url": {
							"raw": "localhost:3000/api/user",
							"host": [
								"localhost"
							],
							"port": "8080",
							"path": [
								"api",
								"user"
							]
						}
					},
					"response": []
				},
				{
					"name": "Search user",
					"request": {
						"method": "GET",
						"header": [],
						"url": {
							"raw": "localhost:3000/api/user/friends/search/{query}",
							"host": [
								"localhost"
							],
							"port": "8080",
							"path": [
								"api",
								"user",
								"friends",
								"search",
								"{query}"
							]
						}
					},
					"response": []
				},
				{
					"name": "User friends",
					"request": {
						"method": "GET",
						"header": [],
						"url": {
							"raw": "localhost:3000/api/user/friends",
							"host": [
								"localhost"
							],
							"port": "8080",
							"path": [
								"api",
								"user",
								"friends"
							]
						}
					},
					"response": []
				},
				{
					"name": "Add friend",
					"request": {
						"method": "PUT",
						"header": [],
						"url": {
							"raw": "localhost:3000/api/user/friends/facebook|2620976478136254",
							"host": [
								"localhost"
							],
							"port": "8080",
							"path": [
								"api",
								"user",
								"friends",
								"facebook|2620976478136254"
							]
						}
					},
					"response": []
				},
				{
					"name": "Delete friend",
					"request": {
						"method": "DELETE",
						"header": [],
						"url": {
							"raw": "localhost:3000/api/user/friends/{id}",
							"host": [
								"localhost"
							],
							"port": "8080",
							"path": [
								"api",
								"user",
								"friends",
								"{id}"
							]
						}
					},
					"response": []
				},
				{
					"name": "User current countries",
					"request": {
						"method": "GET",
						"header": [],
						"url": {
							"raw": "localhost:3000/api/user/countries",
							"host": [
								"localhost"
							],
							"port": "8080",
							"path": [
								"api",
								"user",
								"countries"
							]
						}
					},
					"response": []
				},
				{
					"name": "Countries all",
					"request": {
						"method": "GET",
						"header": [],
						"url": {
							"raw": "localhost:3000/api/user/countries",
							"host": [
								"localhost"
							],
							"port": "8080",
							"path": [
								"api",
								"user",
								"countries"
							]
						}
					},
					"response": []
				},
				{
					"name": "Add country",
					"request": {
						"method": "PUT",
						"header": [],
						"url": {
							"raw": "localhost:3000/api/user/countries/{{countryCode}}",
							"host": [
								"localhost"
							],
							"port": "8080",
							"path": [
								"api",
								"user",
								"countries",
								"{{countryCode}}"
							]
						}
					},
					"response": []
				},
				{
					"name": "User countrie not visited",
					"request": {
						"method": "GET",
						"header": [],
						"url": {
							"raw": "localhost:3000/api/user/countries",
							"host": [
								"localhost"
							],
							"port": "8080",
							"path": [
								"api",
								"user",
								"countries"
							]
						}
					},
					"response": []
				}
			],
			"protocolProfileBehavior": {}
		},
		{
			"name": "localhost:3000/api/private",
			"request": {
				"method": "GET",
				"header": [],
				"url": {
					"raw": "localhost:3000/api/private",
					"host": [
						"localhost"
					],
					"port": "8080",
					"path": [
						"api",
						"private"
					]
				}
			},
			"response": []
		},
		{
			"name": "https://travel-buddies.eu.auth0.com/userinfo",
			"request": {
				"method": "GET",
				"header": [],
				"url": {
					"raw": "https://travel-buddies.eu.auth0.com/userinfo",
					"protocol": "https",
					"host": [
						"travel-buddies",
						"eu",
						"auth0",
						"com"
					],
					"path": [
						"userinfo"
					]
				}
			},
			"response": []
		}
	],
	"auth": {
		"type": "oauth2",
		"oauth2": [
			{
				"key": "accessToken",
				"value": "eyJhbGciOiJSUzI1NiIsInR5cCI6IkpXVCIsImtpZCI6Ik56STJSRFV4TVRVME56UXdSVU0wUXpReVFUWXdRa00wTURFelJqUTVRa1E0TWpVNVFqVTFNdyJ9.eyJpc3MiOiJodHRwczovL3RyYXZlbC1idWRkaWVzLmV1LmF1dGgwLmNvbS8iLCJzdWIiOiJmYWNlYm9va3wyNjIwOTc2NDc4MTM2MjU0IiwiYXVkIjpbImh0dHBzOi8vdGItc2VydmVyLnN0ZXBhbmVrLmFwcCIsImh0dHBzOi8vdHJhdmVsLWJ1ZGRpZXMuZXUuYXV0aDAuY29tL3VzZXJpbmZvIl0sImlhdCI6MTU5MDgzNjc2NiwiZXhwIjoxNTkwOTIzMTY2LCJhenAiOiIwVlNRaFZFRkduNGlYS21XNTBEazMwS0lVSUl6c3NtNSIsInNjb3BlIjoib3BlbmlkIHByb2ZpbGUgZW1haWwifQ.jM39gSNeHIbq4V2DXNTDk_gFRaKcKWXoeA85tdHTBMVuGM4jN9O7HcUUOzoJU1Puo2aX2jHivCg7AloOlCMC_wesJnnvmnxphWK1UWXuOvWlPTilSKBX__q7ZSASKG_brYypd0nIRSVolAshaJGinkZT-fYiC9-Tgk70ejPSpJSF1RKlln6JTH6BjOGc0GP3pbm91SdJt2oIFCUB85S6ZrlZGQQHGXvAo9AwC_UuFPGfKa7Zw2nMv4qqMxoShf0qG1ItsS3IagXhBVDSza-bkEZVPQ-F_WU-qpuNTEXN4sRtGg5BqPwCpm4qrYDb4N7nbMSBqQ9gc4HRqLxrRE7Lrw",
				"type": "string"
			},
			{
				"key": "tokenType",
				"value": "Bearer",
				"type": "string"
			},
			{
				"key": "addTokenTo",
				"value": "header",
				"type": "string"
			}
		]
	},
	"event": [
		{
			"listen": "prerequest",
			"script": {
				"id": "925d7c90-8871-4edf-aefc-4f87397d8498",
				"type": "text/javascript",
				"exec": [
					""
				]
			}
		},
		{
			"listen": "test",
			"script": {
				"id": "8263af6b-250c-4f35-9a22-1166390af34d",
				"type": "text/javascript",
				"exec": [
					""
				]
			}
		}
	],
	"variable": [
		{
			"id": "24239d8d-8aa4-4280-9c50-f1e2e4a51743",
			"key": "auth0_domain",
			"value": "travel-buddies.eu.auth0.com",
			"type": "string"
		},
		{
			"id": "be5361cc-b5bd-4ddf-93ee-ca6186ed8ecb",
			"key": "auth0_client_id",
			"value": "0VSQhVEFGn4iXKmW50Dk30KIUIIzssm5",
			"type": "string"
		},
		{
			"id": "f50a7aae-3780-450b-bf3e-c0061bcfce2c",
			"key": "auth0_client_secret",
			"value": "kuVSHxD6prmARKA4ztOSw_xs5zxk7csAfJm6ybP2PbXb5Gio_PvtD0apsoD3X_CM",
			"type": "string"
		},
		{
			"id": "d25d44e0-4c63-43db-8dc5-8dbc28388539",
			"key": "auth0_audience",
			"value": "https://tb-server.stepanek.app",
			"type": "string"
		}
	],
	"protocolProfileBehavior": {}
}